newmtl Seagull_KamilaBianchi:FacialNew_initialShadingGroup
illum 4
Kd 0.44 0.44 0.44
Ka 0.00 0.00 0.00
Tf 1.00 1.00 1.00
Ni 1.00
newmtl Seagull_KamilaBianchi:VRayMtl1SG
illum 4
Kd 0.00 0.00 0.00
Ka 0.00 0.00 0.00
Tf 1.00 1.00 1.00
Ni 0.00
newmtl Seagull_KamilaBianchi:rig_dark
illum 4
Kd 0.18 0.18 0.18
Ka 0.00 0.00 0.00
Tf 1.00 1.00 1.00
Ni 1.00
newmtl Seagull_KamilaBianchi:rig_mid
illum 4
Kd 0.28 0.28 0.28
Ka 0.00 0.00 0.00
Tf 1.00 1.00 1.00
Ni 1.00
newmtl Seagull_KamilaBianchi:rig_sclera
illum 4
Kd 0.63 0.63 0.63
Ka 0.00 0.00 0.00
Tf 0.13 0.13 0.13
Ni 1.00
newmtl initialShadingGroup
illum 4
Kd 0.00 0.00 0.00
Ka 0.00 0.00 0.00
Tf 1.00 1.00 1.00
Ni 1.00
